R4MS - Workshop 2 Final Exercise
…
Code

catch1 <- read_excel("../data/workshop2/estuary_catch_log.xlsx", sheet = 1)
catch2 <- read_excel("../data/workshop2/estuary_catch_log.xlsx", sheet = 2)
catch3 <- read_excel("../data/workshop2/estuary_catch_log.xlsx", sheet = 3)
catch4 <- read_excel("../data/workshop2/estuary_catch_log.xlsx", sheet = 4)

4.2 Inspect individual sheets

Code

print(catch1)

# A tibble: 104 × 4
   site       date                species       count
   <chr>      <dttm>              <chr>         <dbl>
 1 Lower_ross 2026-05-01 00:00:00 barramundi        6
 2 Lower_ross 2026-05-01 00:00:00 MANGROVE JACK     3
 3 Lower_ross 2026-05-01 00:00:00 bream             4
 4 Lower_ross 2026-05-01 00:00:00 flathead          2
 5 Lower_ross 2026-05-02 00:00:00 barramundi        1
 6 Lower_ross 2026-05-02 00:00:00 MANGROVE JACK     1
 7 Lower_ross 2026-05-02 00:00:00 bream             3
 8 Lower_ross 2026-05-02 00:00:00 flathead          3
 9 Lower_ross 2026-05-03 00:00:00 MANGROVE JACK     2
10 Lower_ross 2026-05-03 00:00:00 flathead          3
# ℹ 94 more rows

Code

print(catch2)

# A tibble: 106 × 4
   site     date                species       count
   <chr>    <dttm>              <chr>         <dbl>
 1 Mid_Ross 2026-05-01 00:00:00 barramundi        4
 2 Mid_Ross 2026-05-01 00:00:00 MANGROVE JACK     2
 3 Mid_Ross 2026-05-01 00:00:00 bream             2
 4 Mid_Ross 2026-05-01 00:00:00 flathead          3
 5 Mid_Ross 2026-05-02 00:00:00 MANGROVE JACK     1
 6 Mid_Ross 2026-05-02 00:00:00 bream             2
 7 Mid_Ross 2026-05-02 00:00:00 flathead          3
 8 Mid_Ross 2026-05-03 00:00:00 barramundi        3
 9 Mid_Ross 2026-05-03 00:00:00 MANGROVE JACK     2
10 Mid_Ross 2026-05-03 00:00:00 bream             1
# ℹ 96 more rows

Code

print(catch3)

# A tibble: 107 × 4
   site       date                species       count
   <chr>      <dttm>              <chr>         <dbl>
 1 ROSS MOUTH 2026-05-01 00:00:00 barramundi        3
 2 ROSS MOUTH 2026-05-01 00:00:00 MANGROVE JACK     2
 3 ROSS MOUTH 2026-05-01 00:00:00 flathead          9
 4 ROSS MOUTH 2026-05-02 00:00:00 MANGROVE JACK     1
 5 ROSS MOUTH 2026-05-02 00:00:00 bream             3
 6 ROSS MOUTH 2026-05-02 00:00:00 flathead          4
 7 ROSS MOUTH 2026-05-03 00:00:00 barramundi        1
 8 ROSS MOUTH 2026-05-03 00:00:00 MANGROVE JACK     1
 9 ROSS MOUTH 2026-05-03 00:00:00 bream             2
10 ROSS MOUTH 2026-05-03 00:00:00 flathead          7
# ℹ 97 more rows

Code

print(catch4)

# A tibble: 110 × 4
   site       date                species       count
   <chr>      <dttm>              <chr>         <dbl>
 1 Upper Ross 2026-05-01 00:00:00 barramundi        5
 2 Upper Ross 2026-05-01 00:00:00 bream             2
 3 Upper Ross 2026-05-01 00:00:00 flathead          6
 4 Upper Ross 2026-05-02 00:00:00 barramundi        8
 5 Upper Ross 2026-05-02 00:00:00 MANGROVE JACK     1
 6 Upper Ross 2026-05-02 00:00:00 bream             2
 7 Upper Ross 2026-05-02 00:00:00 flathead          4
 8 Upper Ross 2026-05-03 00:00:00 barramundi        4
 9 Upper Ross 2026-05-03 00:00:00 bream             2
10 Upper Ross 2026-05-04 00:00:00 barramundi        5
# ℹ 100 more rows
…
4.3 Bind rows together

Code

catch_data <- bind_rows(catch1, catch2, catch3, catch4)
# Clean up the environment
rm(catch1, catch2, catch3, catch4)

4.4 Examine catch data

Code

print(catch_data)

# A tibble: 427 × 4
   site       date                species       count
   <chr>      <dttm>              <chr>         <dbl>
 1 Lower_ross 2026-05-01 00:00:00 barramundi        6
 2 Lower_ross 2026-05-01 00:00:00 MANGROVE JACK     3
 3 Lower_ross 2026-05-01 00:00:00 bream             4
 4 Lower_ross 2026-05-01 00:00:00 flathead          2
 5 Lower_ross 2026-05-02 00:00:00 barramundi        1
 6 Lower_ross 2026-05-02 00:00:00 MANGROVE JACK     1
 7 Lower_ross 2026-05-02 00:00:00 bream             3
 8 Lower_ross 2026-05-02 00:00:00 flathead          3
 9 Lower_ross 2026-05-03 00:00:00 MANGROVE JACK     2
10 Lower_ross 2026-05-03 00:00:00 flathead          3
# ℹ 417 more rows
…
Code

sensor_data <- sensor_raw |> 
    mutate(
      # Parse the character string to Day/Month/Year Hour:Minute
      datetime = dmy_hm(timestamp),
      # Chance -999.0 to NA values
      turbidity = na_if(turbidity, -999),
      # Convert negative salinity values to NA
      salinity = ifelse(salinity < 0, NA, salinity)
    )

print(sensor_data)

# A tibble: 11,520 × 6
   site       timestamp       temperature salinity turbidity datetime           
   <chr>      <chr>                 <dbl>    <dbl>     <dbl> <dttm>             
 1 upper_ross 01/05/2026 00:…        23.7     4.05      6.49 2026-05-01 00:00:00
 2 mid_ross   01/05/2026 00:…        24.1    15.7      49.2  2026-05-01 00:00:00
 3 lower_ross 01/05/2026 00:…        24.2    28.9      48.1  2026-05-01 00:00:00
 4 ross_mouth 01/05/2026 00:…        24.6    33.9      49.8  2026-05-01 00:00:00
 5 upper_ross 01/05/2026 00:…        26.1     3.96     25.2  2026-05-01 00:15:00
 6 mid_ross   01/05/2026 00:…        24.6    12.1      34.8  2026-05-01 00:15:00
 7 lower_ross 01/05/2026 00:…        22.9    30.9      33.9  2026-05-01 00:15:00
 8 ross_mouth 01/05/2026 00:…        20.6    33.9      27.4  2026-05-01 00:15:00
 9 upper_ross 01/05/2026 00:…        24.9     4.32     13.0  2026-05-01 00:30:00
10 mid_ross   01/05/2026 00:…        24.3    17.4      31.9  2026-05-01 00:30:00
# ℹ 11,510 more rows
…
Code

sensor_daily <- sensor_data |>
  mutate(date = as_date(floor_date(datetime, "day"))) |>
  group_by(site, date) |>
  summarise(
    mean_temp = mean(temperature, na.rm = TRUE),
    mean_salinity = mean(salinity, na.rm = TRUE),
    mean_turbidity = mean(turbidity, na.rm = TRUE),
    .groups = "drop")

print(sensor_daily)

# A tibble: 120 × 5
   site       date       mean_temp mean_salinity mean_turbidity
   <chr>      <date>         <dbl>         <dbl>          <dbl>
 1 lower_ross 2026-05-01      23.8          28.4           27.9
 2 lower_ross 2026-05-02      24.0          27.7           24.1
 3 lower_ross 2026-05-03      24.2          28.1           20.6
 4 lower_ross 2026-05-04      24.0          28.2           28.4
 5 lower_ross 2026-05-05      23.9          27.6           26.7
 6 lower_ross 2026-05-06      24.0          28.2           24.0
 7 lower_ross 2026-05-07      24.0          27.6           25.1
 8 lower_ross 2026-05-08      24.0          28.0           25.9
 9 lower_ross 2026-05-09      24.0          27.8           24.6
10 lower_ross 2026-05-10      23.9          28.1           26.2
# ℹ 110 more rows

5 Join catch data with metadata and sensor data

Code

catch_data_final <- catch_data |> 
  left_join(metadata, by = join_by(site == site_name)) |> 
  left_join(sensor_daily, by = join_by(site, date))

print(catch_data_final)

# A tibble: 427 × 12
   site      date                species count common_name scientific_name   lat
   <chr>     <dttm>              <chr>   <dbl> <chr>       <chr>           <dbl>
 1 lower_ro… 2026-05-01 00:00:00 barram…     6 barramundi  Lates calcarif… -19.3
 2 lower_ro… 2026-05-01 00:00:00 mangro…     3 mangrove_j… Lutjanus argen… -19.3
 3 lower_ro… 2026-05-01 00:00:00 bream       4 bream       Acanthopagrus … -19.3
 4 lower_ro… 2026-05-01 00:00:00 flathe…     2 flathead    Platycephalus … -19.3
 5 lower_ro… 2026-05-02 00:00:00 barram…     1 barramundi  Lates calcarif… -19.3
 6 lower_ro… 2026-05-02 00:00:00 mangro…     1 mangrove_j… Lutjanus argen… -19.3
 7 lower_ro… 2026-05-02 00:00:00 bream       3 bream       Acanthopagrus … -19.3
 8 lower_ro… 2026-05-02 00:00:00 flathe…     3 flathead    Platycephalus … -19.3
 9 lower_ro… 2026-05-03 00:00:00 mangro…     2 mangrove_j… Lutjanus argen… -19.3
10 lower_ro… 2026-05-03 00:00:00 flathe…     3 flathead    Platycephalus … -19.3
# ℹ 417 more rows
# ℹ 5 more variables: lon <dbl>, zone <fct>, mean_temp <dbl>,
#   mean_salinity <dbl>, mean_turbidity <dbl>
…
Code

catch_data_final |> 
  complete(
    nesting(site, date, 
           # lat, lon, 
            zone, mean_temp, mean_salinity, mean_turbidity), scientific_name
  ) |>
  mutate(
    # Convert the resulting NA counts to 0
    count = coalesce(count, 0)
  )

# A tibble: 480 × 12
   site       date                zone    mean_temp mean_salinity mean_turbidity
   <chr>      <dttm>              <fct>       <dbl>         <dbl>          <dbl>
 1 lower_ross 2026-05-01 00:00:00 Downst…      23.8          28.4           27.9
 2 lower_ross 2026-05-01 00:00:00 Downst…      23.8          28.4           27.9
 3 lower_ross 2026-05-01 00:00:00 Downst…      23.8          28.4           27.9
 4 lower_ross 2026-05-01 00:00:00 Downst…      23.8          28.4           27.9
 5 lower_ross 2026-05-02 00:00:00 Downst…      24.0          27.7           24.1
 6 lower_ross 2026-05-02 00:00:00 Downst…      24.0          27.7           24.1
 7 lower_ross 2026-05-02 00:00:00 Downst…      24.0          27.7           24.1
 8 lower_ross 2026-05-02 00:00:00 Downst…      24.0          27.7           24.1
 9 lower_ross 2026-05-03 00:00:00 Downst…      24.2          28.1           20.6
10 lower_ross 2026-05-03 00:00:00 Downst…      24.2          28.1           20.6
# ℹ 470 more rows
# ℹ 6 more variables: scientific_name <chr>, species <chr>, count <dbl>,
#   common_name <chr>, lat <dbl>, lon <dbl>
…
